Introduction to R
…
library(ggplot2) # plots

## Warning: package 'ggplot2' was built under R version 3.6.2

The libraries are loaded successfully if theres no error message. Warnings are usually harmless. Pay attention to the conflicts.

Import data

soss <- read_sav("./SOSS81Data.sav")

#View(soss)
soss

## # A tibble: 1,000 x 348
##        caseid weight REGNRACE SEXAGEWT ADJWT MSUEWT STATEWT EADJWT EMSUEWT
##         <dbl>  <dbl>    <dbl>    <dbl> <dbl>  <dbl>   <dbl>  <dbl>   <dbl>
##  1 1394809595  0.331    1.13     1.41  1.41   1.41    1.39   0.962   0.947
##  2 1394834017  0.551    0.878    0.509 0.509  0.511   0.502  0.382   0.376
##  3 1394835239  1.28     0.613    1.26  1.26   1.27    1.28   1.00    0.990
##  4 1394813219  0.925    0.878    0.591 0.591  0.593   0.583  0.518   0.510
##  5 1394853595  1.01     1.10     0.640 0.640  0.642   0.647  0.451   0.444
##  6 1394834859  0.555    1.10     0.744 0.744  0.746   0.752  1.10    1.08 
##  7 1394863425  1.09     0.726    0.575 0.575  0.577   0.564  0.416   0.410
##  8 1394866883  0.583    0.878    0.901 0.901  0.904   0.889  0.699   0.688
##  9 1394849645  0.562    0.878    1.78  1.78   1.78    1.75   1.38    1.36 
## 10 1394822399  0.931    0.726    0.421 0.421  0.422   0.412  0.295   0.290
## #  with 990 more rows, and 339 more variables: ESTATEWT <dbl>,
## #   mcan3_split <dbl+lbl>, legal102_split <dbl+lbl>,
## #   ippsr01_split <dbl+lbl>, inputzip <dbl>, CC1 <dbl+lbl>, CC2 <dbl+lbl>,
## #   CC3 <dbl+lbl>, CC4 <dbl+lbl>, CC5 <dbl+lbl>, CC6 <dbl+lbl>, A1 <chr>,
## #   PO1 <dbl+lbl>, PO2 <dbl+lbl>, D10 <dbl+lbl>, D11 <dbl+lbl>,
## #   D12 <dbl+lbl>, P4a <chr>, CD10 <dbl+lbl>, CD11 <dbl+lbl>,
## #   UN1 <dbl+lbl>, UN2 <dbl+lbl>, UN3 <dbl+lbl>, X1 <dbl+lbl>, X1_t <chr>,
## #   demo_county <dbl+lbl>, demo_Detroit <dbl+lbl>, cellular2 <chr>,
## #   legsal01 <dbl+lbl>, mcan1 <dbl+lbl>, mcan2 <dbl+lbl>,
…
To select rows

df %>% filter(age <= 20)

## # A tibble: 22 x 26
##     caseid weight   driving18   driving19   driving20  driving21 driving22a
##      <dbl>  <dbl>   <dbl+lbl>   <dbl+lbl>   <dbl+lbl>  <dbl+lbl>  <dbl+lbl>
##  1  1.39e9  0.350 3 [Somewha 2 [Somewha 2 [Somewha 4 [Very u 2 [Equall
##  2  1.40e9  3.63  2 [Somewha 2 [Somewha 2 [Somewha 2 [Somewh 3 [Less l
##  3  1.40e9  3.44  1 [Very co 4 [Very un 3 [Somewha 2 [Somewh 4 [N/A]   
##  4  1.40e9  4.56  4 [Very un 3 [Somewha 4 [Very un 3 [Somewh 2 [Equall
##  5  1.40e9  2.07  1 [Very co 2 [Somewha 3 [Somewha 3 [Somewh 1 [More l
##  6  1.40e9  2.07  3 [Somewha 3 [Somewha 2 [Somewha 4 [Very u 1 [More l
##  7  1.40e9  3.12  1 [Very co 3 [Somewha 1 [Very co 2 [Somewh 2 [Equall
##  8  1.40e9  4.91  1 [Very co 1 [Very co 1 [Very co 1 [Very c 4 [N/A]   
##  9  1.40e9  0.845 2 [Somewha 2 [Somewha 1 [Very co 1 [Very c 3 [Less l
## 10  1.40e9  0.836 1 [Very co 1 [Very co 1 [Very co 1 [Very c 4 [N/A]   
## #  with 12 more rows, and 19 more variables: driving22b <dbl+lbl>,
## #   driving22c <dbl+lbl>, driving23a <dbl+lbl>, driving23b <dbl+lbl>,
## #   driving23c <dbl+lbl>, driving16 <dbl+lbl>, driving17 <dbl+lbl>,
## #   CD1 <dbl+lbl>, age <dbl>, agecat7 <dbl+lbl>, CD5a <dbl+lbl>,
## #   races <dbl+lbl>, rac3 <dbl+lbl>, educat4 <dbl+lbl>,
## #   laborforce <dbl+lbl>, inc <dbl+lbl>, X1 <dbl+lbl>, X1_t <chr>,
## #   driving01 <dbl+lbl>

To re-order the dataset

df %>% arrange(inc) # by income (from less to more)

## # A tibble: 1,000 x 26
##     caseid weight   driving18   driving19   driving20  driving21 driving22a
##      <dbl>  <dbl>   <dbl+lbl>   <dbl+lbl>   <dbl+lbl>  <dbl+lbl>  <dbl+lbl>
##  1  1.39e9  0.551  2 [Somewh 2 [Somewha  2 [Somewh NA         3 [Less l
##  2  1.39e9  0.834  1 [Very c 1 [Very co  4 [Very u  2 [Somew 4 [N/A]   
##  3  1.39e9  0.350  3 [Somewh 2 [Somewha  2 [Somewh  4 [Very  2 [Equall
##  4  1.39e9  0.490  2 [Somewh 2 [Somewha  2 [Somewh  2 [Somew 3 [Less l
##  5  1.40e9  0.772  2 [Somewh 2 [Somewha NA           2 [Somew 4 [N/A]   
##  6  1.39e9  0.599  2 [Somewh 2 [Somewha  1 [Very c  2 [Somew 4 [N/A]   
##  7  1.39e9  0.522  1 [Very c 3 [Somewha  2 [Somewh  1 [Very  4 [N/A]   
##  8  1.39e9  0.646  4 [Very u 4 [Very un  3 [Somewh  4 [Very  4 [N/A]   
##  9  1.40e9  0.805 NA          1 [Very co  1 [Very c  1 [Very  3 [Less l
## 10  1.40e9  1.11   2 [Somewh 2 [Somewha  2 [Somewh  2 [Somew 3 [Less l
## #  with 990 more rows, and 19 more variables: driving22b <dbl+lbl>,
## #   driving22c <dbl+lbl>, driving23a <dbl+lbl>, driving23b <dbl+lbl>,
## #   driving23c <dbl+lbl>, driving16 <dbl+lbl>, driving17 <dbl+lbl>,
## #   CD1 <dbl+lbl>, age <dbl>, agecat7 <dbl+lbl>, CD5a <dbl+lbl>,
## #   races <dbl+lbl>, rac3 <dbl+lbl>, educat4 <dbl+lbl>,
## #   laborforce <dbl+lbl>, inc <dbl+lbl>, X1 <dbl+lbl>, X1_t <chr>,
## #   driving01 <dbl+lbl>
…
df %>% count(CD1)

## # A tibble: 4 x 2
##                   CD1     n
##             <dbl+lbl> <int>
## 1  1 [Male]             439
## 2  2 [Female]           555
## 3  3 [Intersex/Other]     5
## 4 NA                      1

To create a new variable

df %>% mutate(gender = as.factor(CD1))

## # A tibble: 1,000 x 27
##     caseid weight   driving18   driving19   driving20  driving21 driving22a
##      <dbl>  <dbl>   <dbl+lbl>   <dbl+lbl>   <dbl+lbl>  <dbl+lbl>  <dbl+lbl>
##  1  1.39e9  0.331 2 [Somewha 2 [Somewha 2 [Somewha  3 [Somew 4 [N/A]   
##  2  1.39e9  0.551 2 [Somewha 2 [Somewha 2 [Somewha NA         3 [Less l
##  3  1.39e9  1.28  2 [Somewha 2 [Somewha 2 [Somewha  2 [Somew 3 [Less l
##  4  1.39e9  0.925 3 [Somewha 4 [Very un 4 [Very un  4 [Very  4 [N/A]   
##  5  1.39e9  1.01  1 [Very co 1 [Very co 1 [Very co  1 [Very  4 [N/A]   
##  6  1.39e9  0.555 4 [Very un 4 [Very un 4 [Very un  4 [Very  4 [N/A]   
##  7  1.39e9  1.09  2 [Somewha 2 [Somewha 2 [Somewha  3 [Somew 4 [N/A]   
##  8  1.39e9  0.583 2 [Somewha 3 [Somewha 2 [Somewha  2 [Somew 2 [Equall
##  9  1.39e9  0.562 4 [Very un 4 [Very un 4 [Very un  4 [Very  4 [N/A]   
## 10  1.39e9  0.931 2 [Somewha 2 [Somewha 2 [Somewha  2 [Somew 3 [Less l
## #  with 990 more rows, and 20 more variables: driving22b <dbl+lbl>,
## #   driving22c <dbl+lbl>, driving23a <dbl+lbl>, driving23b <dbl+lbl>,
## #   driving23c <dbl+lbl>, driving16 <dbl+lbl>, driving17 <dbl+lbl>,
## #   CD1 <dbl+lbl>, age <dbl>, agecat7 <dbl+lbl>, CD5a <dbl+lbl>,
## #   races <dbl+lbl>, rac3 <dbl+lbl>, educat4 <dbl+lbl>,
## #   laborforce <dbl+lbl>, inc <dbl+lbl>, X1 <dbl+lbl>, X1_t <chr>,
## #   driving01 <dbl+lbl>, gender <fct>
…
